[
	{
		"title": "yerba mate marolio",
		"price": 540.34,
		"thumbnail": "http://foto1.jpg",
		"id": 1
	},
	{
		"title": "Mermelada Sancor",
		"price": 250.34,
		"thumbnail": "http://foto2.jpg",
		"id": 2
	}
]